R Demo
…
```
## [1] 0.4452254
```
Yes: Moderate positive correlation
---
# Sampling
A random sample of 50

```r
rsamp(PAData, n=50) 
```

```
## # A tibble: 50 x 18
##    `Account Number` Suite `House Number` `Street Name` Garage `Neighbourhood ~
##               <dbl> <chr>          <dbl> <chr>         <chr>             <dbl>
##  1          9309469 <NA>            3148 78 STREET NW  N                  6750
##  2          3833415 <NA>           14311 128 STREET NW Y                  3150
##  3          1086347 705            12141 JASPER AVENU~ N                  1150
##  4          4080065 <NA>            3772 30 STREET NW  Y                  6790
##  5         10878699 <NA>            9937 222A STREET ~ Y                  4487
##  6          7594609 <NA>           10848 69 AVENUE NW  Y                  5010
##  7         10744165 <NA>              NA <NA>          N                  6662
##  8         10098635 5              10650 108 STREET NW N                  1030
##  9         10500260 <NA>            4313 ANNETT COMMO~ Y                  5458
## 10          5087416 <NA>           12009 41 STREET NW  Y                  2040
## # ... with 40 more rows, and 12 more variables: Neighbourhood <chr>,
## #   Ward <chr>, `Assessed Value` <dbl>, Latitude <dbl>, Longitude <dbl>, `Point
## #   Location` <chr>, `Assessment Class % 1` <dbl>, `Assessment Class %
## #   2` <dbl>, `Assessment Class % 3` <dbl>, `Assessment Class 1` <chr>,
## #   `Assessment Class 2` <chr>, `Assessment Class 3` <chr>
```
…
